[
  {
    "id": "343f72a79bb2",
    "name": "Chave de cobre",
    "description": "Descrição da chave...",
    "sizeUnit": 1
  },
  {
    "id": "ec702b0cb34a",
    "name": "Chave pequena",
    "description": "Descrição da chave...",
    "sizeUnit": 1
  },
  {
    "id": "fu813c1dc45b",
    "name": "Chave dourada",
    "description": "Descrição da chave...",
    "sizeUnit": 1
  }
]